0 dev 1: foreach (var line in lines) 
1 dev 1: {
Conflict 1
2 orig :                 Console.WriteLine(line);
2 dev 1:                 Console.WriteLine(dev1);
2 dev 2:                 Console.WriteLine(dev2);
Conflict 1
3 dev 2: }y
Conflict 2
4 dev 1: k
4 dev 2: m
Conflict 2
5 dev 1: n
Conflict 3
6 dev 1:    
6 dev 2: ghj
Conflict 3
7 dev 1:    dfg
